{
  "configurations": [
    {
      "name": "Debug",
      "generator": "Unix Makefiles",
      "configurationType" : "Debug",
      "buildRoot":  "${projectDir}/build",
      "cmakeCommandArgs":  "",
      "buildCommandArgs": "",
      "ctestCommandArgs":  "",
      "variables": [{
        "name": "TEST_VAR",
        "value": "ON"
        }]
    },
    {
      "name": "Release",
      "generator": "Unix Makefiles",
      "configurationType" : "Release",
      "buildRoot": "${projectDir}/build",
      "cmakeCommandArgs": "",
      "buildCommandArgs": "",
      "ctestCommandArgs": ""
    }
  ]
}
