2
60
3
4
109
36
14

0
0. 0. 1.
0.1 0.01 1.
-2.0 0. 1.
-0.3 2.00 1.
-1
0
1
0
-2. 2. 1.
-0.5 2. 1.

0
0.1 0.01 1.
0.2 0.1 1.
-0.3 2.00 1.
0.1 2.00 1.
-1
0
0
0

0
0.2 0.1 1.
0.6 0.1 1.
0.1 2.00 1.
0.4 2.00 1.
-1
0
0
0

0
0.6 0.1 1.
0.7 0.1 1.
0.4 2.00 1.
0.6 2.00 1.
-1
0
0
0

0
0.7 0.1 1.
0.85 0.1 1.
0.6 2.00 1.
0.8 2.00 1.
-1
0
0
0

0
0.85 0.1 1.
0.9 0.1 1.
0.8 2.00 1.
0.9 2.00 1.
-1
0
0
0

0
0.9 0.1 1.
1. 0.1 1.
0.9 2.00 1.
1. 2.00 1.
-1
0
0
0

0
1.0 0.00 1.
4.0 0.00 1.
1. 2.00 1.
4.0 2.00 1.
0
0
0
0




0
-2. -0. 1.
-0.3 -2.00 1.
0. 0. 1.
0.1 -0.01 1.
1
0
-1
0
-2. -2. 1.
-0.5 -2. 1.

0
-0.3 -2.00 1.
0.1 -2.00 1.
0.1 -0.01 1.
0.2 -0.02 1.
0
0
-1
0

0
0.1 -2.00 1.
0.4 -2.00 1.
0.2 -0.12 1.
0.6 -0.10 1.
0
0
-1
0

0
0.4 -2.00 1.
0.6 -2.00 1.
0.6 -0.10 1.
0.7 -0.00 1.
0
0
-1
0

0
0.6 -2.00 1.
0.8 -2.00 1.
0.7 -0.10 1.
0.8 -0.10 1.
0
0
-1
0

0
0.8 -2.00 1.
0.9 -2.00 1.
0.8 -0.10 1.
0.9 -0.10 1.
0
0
-1
0

0
0.9 -2.00 1.
1. -2.00 1.
0.9 -0.10 1.
1. -0.10 1.
0
0
-1
0

0
1. -2.00 1.
4.0 -2.00 1.
1.0 -0.00 1.
4.0 -0.00 1.
0
0
0
0



0
-2.0 0. 1.
-0.3 2.00 1.
-20. 0. 1.
-0.3 15.00 1.
1
0
1
0
-2. 2. 1.
-0.5 2. 1.
-20. 15. 1.
-5. 15. 1.

0
-0.3 2.00 1.
0.1 2.00 1.
-0.3 15.00 1.
0.1 15.00 1.
0
0
0
0

0
0.1 2.00 1.
0.4 2.00 1.
0.1 15.00 1.
0.4 15.00 1.
0
0
0
0

0
0.4 2.00 1.
0.6 2.00 1.
0.4 15.00 1.
0.6 15.00 1.
0
0
0
0

0
0.6 2.00 1.
0.8 2.00 1.
0.6 15.00 1.
0.8 15.00 1.
0
0
0
0

0
0.8 2.00 1.
0.9 2.00 1.
0.8 15.00 1.
0.9 15.00 1.
0
0
0
0

0
0.9 2.00 1.
1. 2.00 1.
0.9 15.00 1.
1. 15.00 1.
0
0
0
0

0
1. 2.00 1.
4.0 2.00 1.
1. 15.00 1.
4.0 15.00 1.
0
0
0
0

0
4.0 2.00 1.
25. 2.00 1.
4.0 15.00 1.
25.0 15.00 1.
0
0
0
0

0
4.0 0.00 1.
25. 0.00 1.
4.0 2.00 1.
25.0 2.00 1.
0
0
0
0




0
-20. -0. 1.
-0.3 -15.00 1.
-2. -0. 1.
-0.3 -2.00 1.
1
0
1
0
-20. -15. 1.
-5 -15. 1.
-2. -2. 1.
-0.5 -2. 1.

0
-0.3 -15.00 1.
0.1 -15.00 1.
-0.3 -2.00 1.
0.1 -2.00 1.
0
0
0
0

0
0.1 -15.00 1.
0.4 -15.00 1.
0.1 -2.00 1.
0.4 -2.00 1.
0
0
0
0

0
0.4 -15.00 1.
0.6 -15.00 1.
0.4 -2.00 1.
0.6 -2.00 1.
0
0
0
0

0
0.6 -15.00 1.
0.8 -15.00 1.
0.6 -2.00 1.
0.8 -2.00 1.
0
0
0
0

0
0.8 -15.00 1.
0.9 -15.00 1.
0.8 -2.00 1.
0.9 -2.00 1.
0
0
0
0

0
0.9 -15.00 1.
1. -15.00 1.
0.9 -2.00 1.
1. -2.00 1.
0
0
0
0

0
1. -15.00 1.
4.0 -15.00 1.
1. -2.00 1.
4.0 -2.00 1.
0
0
0
0

0
4.0 -15.00 1.
25.0 -15.00 1.
4.0 -2.00 1.
25.0 -2.00 1.
0
0
0
0

0
4.0 -2.00 1.
25.0 -2.00 1.
4.0 -0.00 1.
25.0 -0.00 1.
0
0
0
0



1
0.08 0. 1.
0.115 0.02 1.
0. 0. 1.
0.1 0.01 1.
0
0
-1
0

1
0.115 0.02 1.
0.25 0.025 1.
0. 0. 1.
0.1 0.01 1.
0
0
-1
0

1
0.25 0.025 1.
0.375 0.025 1.
0. 0. 1.
0.1 0.01 1.
0
0
-1
0

1
0.375 0.025 1.
0.5 0.025 1.
0. 0. 1.
0.1 0.01 1.
0
0
-1
0

1
0.5 0.025 1.
0.625 0.025 1.
0. 0. 1.
0.1 0.01 1.
0
0
-1
0

1
0.625 0.025 1.
0.760 0.025 1.
0. 0. 1.
0.1 0.01 1.
0
0
-1
0

1
0.760 0.025 1.
0.8 0.01 1.
0. 0. 1.
0.1 0.01 1.
0
0
-1
0

1
0. 0. 1.
0.1 0.01 1.
0.08 0. 1.
0.115 -0.02 1.
-1
0
0
0

1
0. 0. 1.
0.1 0.01 1.
0.115 -0.02 1.
0.25 -0.025 1.
-1
0
0
0

1
0. 0. 1.
0.1 0.01 1.
0.25 -0.025 1.
0.375 -0.025 1.
-1
0
0
0

1
0. 0. 1.
0.1 0.01 1.
0.375 -0.025 1.
0.5 -0.025 1.
-1
0
0
0

1
0. 0. 1.
0.1 0.01 1.
0.5 -0.025 1.
0.625 -0.01 1.
-1
0
0
0

1
0. 0. 1.
0.1 0.01 1.
0.625 -0.01 1.
0.760 -0.005 1.
-1
0
0
0

1
0. 0. 1.
0.1 0.005 1.
0.760 -0.005 1.
0.8 0.01 1.
-1
0
0
0

1
0.08 0. 1.
0.25 0. 1.
.115 0.02 1.
0.25 0.025 1.
0
0
0
0

1
0.25 0. 1.
0.375 0. 1.
0.25 0.025 1.
0.375 0.025 1.
0
0
0
0

1
0.375 0. 1.
0.5 0. 1.
0.375 0.025 1.
0.5 0.025 1.
0
0
0
0

1
0.5 0. 1.
0.625 0.005 1.
0.5 0.025 1.
0.625 0.025 1.
0
0
0
0

1
0.625 0.005 1.
0.8 0.01 1.
0.625 0.025 1.
0.760 0.025 1.
0
0
0
0

1
0.115 -0.02 1.
0.25 -0.025 1.
0.08 0. 1.
0.25 0. 1.
0
0
0
0

1
0.25 -0.025 1.
0.375 -0.025 1.
0.25 0. 1.
0.375 0. 1.
0
0
0
0

1
0.375 -0.025 1.
0.5 -0.025 1.
0.375 0. 1.
0.5 0. 1.
0
0
0
0

1
0.5 -0.025 1.
0.625 -0.01 1.
0.5 0. 1.
0.625 0.005 1.
0
0
0
0

1
0.625 -0.01 1.
0.760 -0.005 1.
0.625 0.005 1.
0.8 0.01 1.
0
0
0
0



0 1 1  1 3 1
1 1 1  2 3 1
2 1 1  3 3 1
3 1 1  4 3 1
4 1 1  5 3 1
5 1 1  6 3 1
6 1 1  7 3 1

8 1 1  9 3 1
9 1 1  10 3 1
10 1 1  11 3 1
11 1 1  12 3 1
12 1 1  13 3 1
13 1 1  14 3 1
14 1 1  15 3 1

8 3 -1  0 3 1
15 2 1  7 0 1

16 1 1  17 3 1
17 1 1  18 3 1
18 1 1  19 3 1
19 1 1  20 3 1
20 1 1  21 3 1
21 1 1  22 3 1
22 1 1  23 3 1

26 1 1  27 3 1
27 1 1  28 3 1
28 1 1  29 3 1
29 1 1  30 3 1
30 1 1  31 3 1
31 1 1  32 3 1
32 1 1  33 3 1

7 1 1  25 3 1
23 1 1  24 3 1
15 1 1  35 3 1
33 1 1  34 3 1

0 2 1  16 0 1
1 2 1  17 0 1
2 2 1  18 0 1
3 2 1  19 0 1
4 2 1  20 0 1
5 2 1  21 0 1
6 2 1  22 0 1
7 2 1  23 0 1

26 2 1  8 0 1
27 2 1  9 0 1
28 2 1  10 0 1
29 2 1  11 0 1
30 2 1  12 0 1
31 2 1  13 0 1
32 2 1  14 0 1
33 2 1  15 0 1

26 3 -1  16 3 1
25 2 1  24 0 1
34 2 1  35 0 1
35 2 1  25 0 1



0 0 1 36 2 1
1 0 1 37 2 1
2 0 1 38 2 1
3 0 1 39 2 1
4 0 1 40 2 1
5 0 1 41 2 1
6 0 1 42 2 1

8 2 1 43 0 1
9 2 1 44 0 1
10 2 1 45 0 1
11 2 1 46 0 1
12 2 1 47 0 1
13 2 1 48 0 1
14 2 1 49 0 1

36 1 0 37 3 1
37 1 0 38 3 1
38 1 0 39 3 1
39 1 0 40 3 1
40 1 0 41 3 1
41 1 0 42 3 1

43 1 0 44 3 1
44 1 0 45 3 1
45 1 0 46 3 1
46 1 0 47 3 1
47 1 0 48 3 1
48 1 0 49 3 1

43 3 -1 36 3 1
49 1 -1 42 1 1

36 0 1 50 3 1
37 0 1 50 2 1
38 0 1 51 2 1
39 0 1 52 2 1
40 0 1 53 2 1
41 0 1 54 2 1
42 0 1 54 1 -1

43 2 -1 55 3 1
44 2 1 55 0 1
45 2 1 56 0 1
46 2 1 57 0 1
47 2 1 58 0 1
48 2 1 59 0 1
49 2 1 59 1 1

50 1 1 51 3 1
51 1 1 52 3 1
52 1 1 53 3 1
53 1 1 54 3 1

55 1 1 56 3 1
56 1 1 57 3 1
57 1 1 58 3 1
58 1 1 59 3 1

55 2 1 50 0 1
56 2 1 51 0 1
57 2 1 52 0 1
58 2 1 53 0 1
59 2 1 54 0 1

0 0 1
1 0 1
2 0 1
3 0 1
4 0 1
5 0 1
6 0 1

8 2 1
9 2 1
10 2 1
11 2 1
12 2 1
13 2 1
14 2 1

16 2 2
17 2 2
18 2 2
19 2 2
20 2 2
21 2 2
22 2 2
23 2 2
26 0 2
27 0 2
28 0 2
29 0 2
30 0 2
31 0 2
32 0 2
33 0 2
34 0 2
34 1 2
35 1 2
25 1 2
24 1 2
24 2 2
