MPI initialized
Number of processes: 2

                 I G L O O                   
     NURBS-based Discontinuous Galerkin      
         R. Duvigneau - INRIA                

construction from mesh file: mesh_distributed.dat
elements list : ok
dof mapping : ok
faces list : ok
boundaries list : ok

number of partitions: 2
number of elements: 192
number of interior faces: 372
number of boundary faces: 48
number of variables: 4
element degree: 6
number of control points per element: 49
number of dofs: 9408
number of Gauss points per element: 49

read solution from file: solution_refined.dat
solution reading: ok 

>>> Mass matrix computed
>>> Mass matrix inverted

-> error field 0 : 40.3131
-> error field 1 : 4.02702
-> error field 2 : 0.0935445
-> error field 3 : 72.1897
final time: 0.5
number of time steps: 161

>>> cleaning data

>>> end of program
MPI finalized
